<?xml version="1.0" encoding="utf-8"?>
<!-- Generator: Adobe Illustrator 16.0.4, SVG Export Plug-In . SVG Version: 6.00 Build 0)  -->
<!DOCTYPE svg PUBLIC "-//W3C//DTD SVG 1.1//EN" "http://www.w3.org/Graphics/SVG/1.1/DTD/svg11.dtd">
<svg version="1.1" id="Livello_2" xmlns="http://www.w3.org/2000/svg" xmlns:xlink="http://www.w3.org/1999/xlink" x="0px" y="0px"
	 width="1240px" height="1850.556px" viewBox="0 0 1240 1850.556" enable-background="new 0 0 1240 1850.556" xml:space="preserve">
<path fill="none" stroke="#000000" stroke-width="4.073" stroke-miterlimit="10" d="M780,11.783h460"/>
</svg>
